Tema 2.1
…
```r
library(tidyverse)
```
---
## Creación de tibbles

* Podemos crear un tibble desde un dataframe

```r
as_tibble(iris)
```

```
## # A tibble: 150 × 5
##    Sepal.Length Sepal.Width Petal.Length Petal.Width Species
##           <dbl>       <dbl>        <dbl>       <dbl> <fct>  
##  1          5.1         3.5          1.4         0.2 setosa 
##  2          4.9         3            1.4         0.2 setosa 
##  3          4.7         3.2          1.3         0.2 setosa 
##  4          4.6         3.1          1.5         0.2 setosa 
##  5          5           3.6          1.4         0.2 setosa 
##  6          5.4         3.9          1.7         0.4 setosa 
##  7          4.6         3.4          1.4         0.3 setosa 
##  8          5           3.4          1.5         0.2 setosa 
##  9          4.4         2.9          1.4         0.2 setosa 
## 10          4.9         3.1          1.5         0.1 setosa 
## # ℹ 140 more rows
```
…
---
## Tibbles vs Data Frames

### Printing

Esto es así para no sobrecargar la consola con los prints. ¿Y si necesitamos más de 10 filas? ¡PIPES!

```r
dt %>% print(n=11, width=Inf)
```

```
## # A tibble: 150 × 5
##    Sepal.Length Sepal.Width Petal.Length Petal.Width Species
##           <dbl>       <dbl>        <dbl>       <dbl> <fct>  
##  1          5.1         3.5          1.4         0.2 setosa 
##  2          4.9         3            1.4         0.2 setosa 
##  3          4.7         3.2          1.3         0.2 setosa 
##  4          4.6         3.1          1.5         0.2 setosa 
##  5          5           3.6          1.4         0.2 setosa 
##  6          5.4         3.9          1.7         0.4 setosa 
##  7          4.6         3.4          1.4         0.3 setosa 
##  8          5           3.4          1.5         0.2 setosa 
##  9          4.4         2.9          1.4         0.2 setosa 
## 10          4.9         3.1          1.5         0.1 setosa 
## 11          5.4         3.7          1.5         0.2 setosa 
## # ℹ 139 more rows
```
…
Miramos `?gapminder`

---
## Paso a Paso

```r
gapminder67 <- gapminder %>% filter(year == "1967") 
gapminder67
```

```
## # A tibble: 142 × 6
##    country     continent  year lifeExp      pop gdpPercap
##    <fct>       <fct>     <int>   <dbl>    <int>     <dbl>
##  1 Afghanistan Asia       1967    34.0 11537966      836.
##  2 Albania     Europe     1967    66.2  1984060     2760.
##  3 Algeria     Africa     1967    51.4 12760499     3247.
##  4 Angola      Africa     1967    36.0  5247469     5523.
##  5 Argentina   Americas   1967    65.6 22934225     8053.
##  6 Australia   Oceania    1967    71.1 11872264    14526.
##  7 Austria     Europe     1967    70.1  7376998    12835.
##  8 Bahrain     Asia       1967    59.9   202182    14805.
##  9 Bangladesh  Asia       1967    43.5 62821884      721.
## 10 Belgium     Europe     1967    70.9  9556500    13149.
## # ℹ 132 more rows
```
…
