Tema 3.3
…
---
## Strings: contar patrones

Se usa mucho con mutate

```r
df %>% 
  mutate(
    vocales = str_count(word, "[aeiou]"),
  )
```

```
## # A tibble: 980 × 3
##    word         i vocales
##    <chr>    <int>   <int>
##  1 a            1       1
##  2 able         2       2
##  3 about        3       3
##  4 absolute     4       4
##  5 accept       5       2
##  6 account      6       3
##  7 achieve      7       4
##  8 across       8       2
##  9 act          9       1
## 10 active      10       3
## # ℹ 970 more rows
```
…
---
## Fechas y horas

A veces nos dan las componentes individuales por separado

```r
library(nycflights13)
flights %>% 
  select(year, month, day, hour, minute)
```

```
## # A tibble: 336,776 × 5
##     year month   day  hour minute
##    <int> <int> <int> <dbl>  <dbl>
##  1  2013     1     1     5     15
##  2  2013     1     1     5     29
##  3  2013     1     1     5     40
##  4  2013     1     1     5     45
##  5  2013     1     1     6      0
##  6  2013     1     1     5     58
##  7  2013     1     1     6      0
##  8  2013     1     1     6      0
##  9  2013     1     1     6      0
## 10  2013     1     1     6      0
## # ℹ 336,766 more rows
```

---
## Fechas y horas

Para esto `make_datetime()`. Ojo orden de argumentos!!

```r
flights %>% 
  select(year, month, day, hour, minute) %>% 
  mutate(departure = make_datetime(year, month, day, hour, minute))
```

```
## # A tibble: 336,776 × 6
##     year month   day  hour minute departure          
##    <int> <int> <int> <dbl>  <dbl> <dttm>             
##  1  2013     1     1     5     15 2013-01-01 05:15:00
##  2  2013     1     1     5     29 2013-01-01 05:29:00
##  3  2013     1     1     5     40 2013-01-01 05:40:00
##  4  2013     1     1     5     45 2013-01-01 05:45:00
##  5  2013     1     1     6      0 2013-01-01 06:00:00
##  6  2013     1     1     5     58 2013-01-01 05:58:00
##  7  2013     1     1     6      0 2013-01-01 06:00:00
##  8  2013     1     1     6      0 2013-01-01 06:00:00
##  9  2013     1     1     6      0 2013-01-01 06:00:00
## 10  2013     1     1     6      0 2013-01-01 06:00:00
## # ℹ 336,766 more rows
```
…
