Tema 3.2
…
<img src="img/join-anti.png" width="65%" style="display: block; margin: auto;" />

---
# `anti_join(x,y)`
Útil para diagnosticar discordancias.

```r
flights %>%
  anti_join(planes, by = "tailnum") %>%
  count(tailnum) %>% arrange(desc(n))
```

```
## # A tibble: 722 × 2
##    tailnum     n
##    <chr>   <int>
##  1 <NA>     2512
##  2 N725MQ    575
##  3 N722MQ    513
##  4 N723MQ    507
##  5 N713MQ    483
##  6 N735MQ    396
##  7 N0EGMQ    371
##  8 N534MQ    364
##  9 N542MQ    363
## 10 N531MQ    349
## # … with 712 more rows
```
…
