Lab 03 - Transformación
…
Ejercicio 8

¿Qué tipos de tabaco son más populares en las distintas franjas de
salario bruto? ¿Y en las distintas franjas de edad?

Nota: utiliza la variable decada creada anteriormente

Solución

fumar %>% filter(smoke == "Yes") %>% group_by(gross_income, type) %>%
  summarise(n = n()) %>%
  mutate(prop_type = n/sum(n))

## # A tibble: 28 × 4
## # Groups:   gross_income [10]
##    gross_income     type                        n prop_type
##    <chr>            <chr>                   <int>     <dbl>
##  1 10,400 to 15,600 Both/Mainly Hand-Rolled     3    0.0361
##  2 10,400 to 15,600 Both/Mainly Packets         8    0.0964
##  3 10,400 to 15,600 Hand-Rolled                14    0.169 
##  4 10,400 to 15,600 Packets                    58    0.699 
##  5 15,600 to 20,800 Both/Mainly Packets         5    0.111 
##  6 15,600 to 20,800 Hand-Rolled                13    0.289 
##  7 15,600 to 20,800 Packets                    27    0.6   
##  8 2,600 to 5,200   Both/Mainly Hand-Rolled     1    0.0156
##  9 2,600 to 5,200   Both/Mainly Packets         6    0.0938
## 10 2,600 to 5,200   Hand-Rolled                16    0.25  
## # … with 18 more rows

fumar_new %>% filter(smoke == "Yes") %>% group_by(decada, type) %>%
  summarise(n = n()) %>%
  mutate(prop_type = n/sum(n))

## # A tibble: 28 × 4
## # Groups:   decada [9]
##    decada type                        n prop_type
##    <chr>  <chr>                   <int>     <dbl>
##  1 <=20   Both/Mainly Hand-Rolled     2    0.0909
##  2 <=20   Both/Mainly Packets         3    0.136 
##  3 <=20   Hand-Rolled                 3    0.136 
##  4 <=20   Packets                    14    0.636 
##  5 >90    Packets                     1    1     
##  6 20-30  Both/Mainly Packets        11    0.126 
##  7 20-30  Hand-Rolled                11    0.126 
##  8 20-30  Packets                    65    0.747 
##  9 30-40  Both/Mainly Hand-Rolled     4    0.0385
## 10 30-40  Both/Mainly Packets        15    0.144 
## # … with 18 more rows
…
